Barocco_Schirina
…
Getting the sample

We want to work with the companies and their corresponding GICS sector so, applying the group_by function, we can take a sample of five companies per sector, thus we have 55 firms and 11 sectors: Communication Service, Consumer Discretionary, Consumer Staples, Energy, Financials, Health Care, Industrials, Information Technology, Materials, Real Estate, Utilities.

set.seed(42); 
samp_symbols <- sp_500_wiki[sp_500_wiki$Symbol %in% colnames(merge),] %>%
  # we want a sample of 5 companies for each sector
  group_by(`GICS Sector`) %>%
  sample_n(5) #%>%

samp_symbols

## # A tibble: 55 x 4
## # Groups:   GICS Sector [11]
##    Symbol Security          `GICS Sector`      `GICS Sub Industry`        
##    <chr>  <chr>             <chr>              <chr>                      
##  1 VZ     Verizon Communic~ Communication Ser~ Integrated Telecommunicati~
##  2 DIS    The Walt Disney ~ Communication Ser~ Movies & Entertainment     
##  3 CMCSA  Comcast Corp.     Communication Ser~ Cable & Satellite          
##  4 TTWO   Take-Two Interac~ Communication Ser~ Interactive Home Entertain~
##  5 IPG    Interpublic Group Communication Ser~ Advertising                
##  6 LOW    Lowe's Cos.       Consumer Discreti~ Home Improvement Retail    
##  7 RL     Polo Ralph Laure~ Consumer Discreti~ Apparel, Accessories & Lux~
##  8 BWA    BorgWarner        Consumer Discreti~ Auto Parts & Equipment     
##  9 MHK    Mohawk Industries Consumer Discreti~ Home Furnishings           
## 10 NWL    Newell Brands     Consumer Discreti~ Housewares & Specialties   
## # ... with 45 more rows
…
