cor_matr_divers
…
# we remove the columns with some NA values
merge <- merge[ ,colSums(is.na(merge)) == 0]

Getting the sample

We want to work with the companies and their corresponding GICS sector so, applying the group_by function, we can take a sample of five companies per sector, thus we have 55 firms and 11 sectors: Communication Service, Consumer Discretionary, Consumer Staples, Energy, Financials, Health Care, Industrials, Information Technology, Materials, Real Estate, Utilities.

samp_symbols <- sp_500_wiki[sp_500_wiki$Symbol %in% colnames(merge),] %>%
  # we want a sample of 5 companies for each sector
  group_by(`GICS Sector`) %>%
  sample_n(5) #%>%

samp_symbols

## # A tibble: 55 x 4
## # Groups:   GICS Sector [11]
##    Symbol Security             `GICS Sector`     `GICS Sub Industry`      
##    <chr>  <chr>                <chr>             <chr>                    
##  1 VZ     Verizon Communicati~ Communication Se~ Integrated Telecommunica~
##  2 EA     Electronic Arts      Communication Se~ Interactive Home Enterta~
##  3 TTWO   Take-Two Interactive Communication Se~ Interactive Home Enterta~
##  4 CMCSA  Comcast Corp.        Communication Se~ Cable & Satellite        
##  5 FOX    Twenty-First Centur~ Communication Se~ Movies & Entertainment   
##  6 PVH    PVH Corp.            Consumer Discret~ Apparel, Accessories & L~
##  7 NKE    Nike                 Consumer Discret~ Apparel, Accessories & L~
##  8 DHI    D. R. Horton         Consumer Discret~ Homebuilding             
##  9 YUM    Yum! Brands Inc      Consumer Discret~ Restaurants              
## 10 PHM    Pulte Homes Inc.     Consumer Discret~ Homebuilding             
## # ... with 45 more rows
…
